Make_Abortions_Move_Again
…
final_df

## # A tibble: 2,304 x 11
##    Municipalities  Year allAges age15_19 age20_24 age25_29 age30_34 age35_39
##    <chr>          <dbl>   <dbl>    <dbl>    <dbl>    <dbl>    <dbl>    <dbl>
##  1 Albertslund     1995   0.466   0.0647   0.0987   0.136    0.0885   0.0544
##  2 Albertslund     1996   0.565   0.0993   0.151    0.103    0.130    0.0582
##  3 Albertslund     1997   0.492   0.0679   0.126    0.0747   0.146    0.0577
##  4 Albertslund     1998   0.500   0.0850   0.116    0.0918   0.129    0.0646
##  5 Albertslund     1999   0.457   0.0375   0.130    0.0989   0.0921   0.0750
##  6 Albertslund     2000   0.358   0.0614   0.0750   0.0784   0.0852   0.0443
##  7 Albertslund     2001   0.404   0.0514   0.103    0.103    0.0753   0.0616
##  8 Albertslund     2002   0.409   0.0790   0.113    0.0721   0.0515   0.0755
##  9 Albertslund     2003   0.506   0.0520   0.128    0.118    0.101    0.0867
## 10 Albertslund     2004   0.456   0.123    0.119    0.0877   0.0702   0.0491
## # ... with 2,294 more rows, and 3 more variables: age40_44 <dbl>,
## #   age45_49 <dbl>, av_Income <dbl>

head(final_df,26)

## # A tibble: 26 x 11
##    Municipalities  Year allAges age15_19 age20_24 age25_29 age30_34 age35_39
##    <chr>          <dbl>   <dbl>    <dbl>    <dbl>    <dbl>    <dbl>    <dbl>
##  1 Albertslund     1995   0.466   0.0647   0.0987   0.136    0.0885   0.0544
##  2 Albertslund     1996   0.565   0.0993   0.151    0.103    0.130    0.0582
##  3 Albertslund     1997   0.492   0.0679   0.126    0.0747   0.146    0.0577
##  4 Albertslund     1998   0.500   0.0850   0.116    0.0918   0.129    0.0646
##  5 Albertslund     1999   0.457   0.0375   0.130    0.0989   0.0921   0.0750
##  6 Albertslund     2000   0.358   0.0614   0.0750   0.0784   0.0852   0.0443
##  7 Albertslund     2001   0.404   0.0514   0.103    0.103    0.0753   0.0616
##  8 Albertslund     2002   0.409   0.0790   0.113    0.0721   0.0515   0.0755
##  9 Albertslund     2003   0.506   0.0520   0.128    0.118    0.101    0.0867
## 10 Albertslund     2004   0.456   0.123    0.119    0.0877   0.0702   0.0491
## # ... with 16 more rows, and 3 more variables: age40_44 <dbl>, age45_49 <dbl>,
## #   av_Income <dbl>

head(final_df05_18, 26)

## # A tibble: 26 x 12
##    Municipalities  Year allAges age15_19 age20_24 age25_29 age30_34 age35_39
##    <chr>          <dbl>   <dbl>    <dbl>    <dbl>    <dbl>    <dbl>    <dbl>
##  1 Albertslund     2005   0.419   0.0746   0.110    0.0959   0.0533   0.0426
##  2 Albertslund     2006   0.445   0.0826   0.118    0.0718   0.0790   0.0646
##  3 Albertslund     2007   0.529   0.0942   0.170    0.109    0.0761   0.0580
##  4 Albertslund     2008   0.514   0.0870   0.156    0.0797   0.101    0.0543
##  5 Albertslund     2009   0.444   0.0794   0.123    0.115    0.0686   0.0541
##  6 Albertslund     2010   0.361   0.0613   0.0649   0.0793   0.112    0.0288
##  7 Albertslund     2011   0.450   0.0755   0.165    0.0504   0.101    0.0360
##  8 Albertslund     2012   0.384   0.0538   0.0825   0.0969   0.0790   0.0538
##  9 Albertslund     2013   0.381   0.0575   0.0934   0.0575   0.0647   0.0647
## 10 Albertslund     2014   0.339   0.0361   0.0938   0.123    0.0613   0.0216
## # ... with 16 more rows, and 4 more variables: age40_44 <dbl>, age45_49 <dbl>,
## #   av_Income <dbl>, av_age <dbl>
…
shinyApp(ui = ui, server = server)

Shiny applications not supported in static R Markdown documents

final_df %>%  #We choose to look at the gapminder dataset and add pipes to it, so we can send an output of one fucntion directly to another.
  filter(Year == 2018) %>%  #First we filter the years in tha dataset so vi are only looking at data from 1952
  select(Municipalities , allAges) %>% #then we select or choose to look at the countries and their gdpPercap, as everything else is irelevant right now
  arrange(desc(allAges)) #lastly, we arange our data in a decending order so we have the richest nation first.

## # A tibble: 96 x 2
##    Municipalities allAges
##    <chr>            <dbl>
##  1 Kbenhavn        0.378
##  2 Trnby           0.323
##  3 Randers          0.321
##  4 Frederiksberg    0.314
##  5 Aarhus           0.310
##  6 Helsingr        0.306
##  7 Gladsaxe         0.292
##  8 Ringsted         0.290
##  9 Kge             0.290
## 10 Fredericia       0.286
## # ... with 86 more rows

final_df05_18 %>%  #We choose to look at the gapminder dataset and add pipes to it, so we can send an output of one fucntion directly to another.
  filter(Year == 2018) %>%  #First we filter the years in tha dataset so vi are only looking at data from 1952
  select(Municipalities , av_age) %>% #then we select or choose to look at the countries and their gdpPercap, as everything else is irelevant right now
  arrange((av_age))

## # A tibble: 96 x 2
##    Municipalities av_age
##    <chr>           <dbl>
##  1 Kbenhavn        35.9
##  2 Aarhus           37.7
##  3 Ishj            38.8
##  4 Odense           39.5
##  5 Frederiksberg    39.6
##  6 Gladsaxe         39.7
##  7 Vallensbk       39.7
##  8 Albertslund      39.8
##  9 Aalborg          39.9
## 10 Hvidovre         40  
## # ... with 86 more rows
…
